{
	"goToPage-Main": {
		"name": "goToPage-Main",
		"owner": "Page",
		"operation": "gotoPage",
		"pageName": "Main",
		"dataBinding": {},
		"category": "wm.NavigationVariable",
		"_id": "wm-wm.NavigationVariable1389180517517"
	},
	"supportedLocale": {
		"name": "supportedLocale",
		"type": "string",
		"isList": false,
		"owner": "App",
		"dataSet": {
			"en": "English"
		},
		"dataBinding": [
			{
				"name": "dataSet",
				"type": "object",
				"fields": [
					{
						"name": "dataValue",
						"type": "string"
					}
				]
			}
		],
		"saveInPhonegap": false,
		"category": "wm.Variable",
		"_id": "wm-wm.Variable1402640443182"
	},
	"goToPage-Page": {
		"owner": "App",
		"operation": "gotoPage",
		"pageName": "Page",
		"dataBinding": {},
		"category": "wm.NavigationVariable",
		"_id": "wm-goToPage-Page-wm.NavigationVariable-1438241072168"
	}
}